{
  "results": [
    {
      "vote_count": 224,
      "id": 353081,
      "video": false,
      "vote_average": 7.6,
      "title": "Mission: Impossible - Fallout",
      "popularity": 445.872,
      "poster_path": "/AkJQpZp9WoNdj7pLYSj1L0RcMMN.jpg",
      "original_language": "en",
      "original_title": "Mission: Impossible - Fallout",
      "genre_ids": [
        12,
        28,
        53
      ],
      "backdrop_path": "/5qxePyMYDisLe8rJiBYX8HKEyv2.jpg",
      "adult": false,
      "overview": "When an IMF mission ends badly, the world is faced with dire consequences. As Ethan Hunt takes it upon himself to fulfil his original briefing, the CIA begin to question his loyalty and his motives. The IMF team find themselves in a race against time, hunted by assassins while trying to prevent a global catastrophe.",
      "release_date": "2018-07-25"
    },
    {
      "vote_count": 900,
      "id": 363088,
      "video": false,
      "vote_average": 7,
      "title": "Ant-Man and the Wasp",
      "popularity": 129.518,
      "poster_path": "/rv1AWImgx386ULjcf62VYaW8zSt.jpg",
      "original_language": "en",
      "original_title": "Ant-Man and the Wasp",
      "genre_ids": [
        28,
        12,
        14,
        35,
        878
      ],
      "backdrop_path": "/6P3c80EOm7BodndGBUAJHHsHKrp.jpg",
      "adult": false,
      "overview": "As Scott Lang awaits expiration of his term of house detention, Hope van Dyne and Dr. Hank Pym involve him in a scheme to rescue Mrs. van Dyne from the micro-universe into which she has fallen, while two groups of schemers converge on them with intentions of stealing Dr. Pym's inventions.",
      "release_date": "2018-07-04"
    },
    {
      "vote_count": 374,
      "id": 442249,
      "video": false,
      "vote_average": 6.2,
      "title": "The First Purge",
      "popularity": 80.109,
      "poster_path": "/2slvblTroiT1lY9bYLK7Amigo1k.jpg",
      "original_language": "en",
      "original_title": "The First Purge",
      "genre_ids": [
        28,
        27,
        878,
        53
      ],
      "backdrop_path": "/dnaitaoCh8MftfYEVnprcuYExZp.jpg",
      "adult": false,
      "overview": "To push the crime rate below one percent for the rest of the year, the New Founding Fathers of America test a sociological theory that vents aggression for one night in one isolated community. But when the violence of oppressors meets the rage of the others, the contagion will explode from the trial-city borders and spread across the nation.",
      "release_date": "2018-07-04"
    },
    {
      "vote_count": 1435,
      "id": 260513,
      "video": false,
      "vote_average": 7.7,
      "title": "Incredibles 2",
      "popularity": 78.652,
      "poster_path": "/x1txcDXkcM65gl7w20PwYSxAYah.jpg",
      "original_language": "en",
      "original_title": "Incredibles 2",
      "genre_ids": [
        28,
        12,
        16,
        10751
      ],
      "backdrop_path": "/mabuNsGJgRuCTuGqjFkWe1xdu19.jpg",
      "adult": false,
      "overview": "Elastigirl springs into action to save the day, while Mr. Incredible faces his greatest challenge yet – taking care of the problems of his three children.",
      "release_date": "2018-06-14"
    },
    {
      "vote_count": 71,
      "id": 470878,
      "video": false,
      "vote_average": 7.3,
      "title": "I Can Only Imagine",
      "popularity": 52.273,
      "poster_path": "/veZszwMZu8d3WMU6TJX9sV5w1Y4.jpg",
      "original_language": "en",
      "original_title": "I Can Only Imagine",
      "genre_ids": [
        18,
        10751,
        10402
      ],
      "backdrop_path": "/9XjNaS2S0RJfjbUPDAzILPprU3r.jpg",
      "adult": false,
      "overview": "Growing up in Texas, Bart Millard suffers physical and emotional abuse at the hands of his father. His childhood and relationship with his dad inspires him to write the hit song \"I Can Only Imagine\" as singer of the Christian band MercyMe.",
      "release_date": "2018-03-08"
    },
    {
      "vote_count": 223,
      "id": 400155,
      "video": false,
      "vote_average": 6.9,
      "title": "Hotel Transylvania 3: Summer Vacation",
      "popularity": 51.587,
      "poster_path": "/gjAFM4xhA5vyLxxKMz38ujlUfDL.jpg",
      "original_language": "en",
      "original_title": "Hotel Transylvania 3: Summer Vacation",
      "genre_ids": [
        10751,
        14,
        35,
        16
      ],
      "backdrop_path": "/m03jul0YdVEOFXEQVUv6pOVQYGL.jpg",
      "adult": false,
      "overview": "Dracula, Mavis, Johnny and the rest of the Drac Pack take a vacation on a luxury Monster Cruise Ship, where Dracula falls in love with the ship's captain, Ericka, who's secretly a descendant of Abraham Van Helsing, the notorious monster slayer.",
      "release_date": "2018-06-30"
    },
    {
      "vote_count": 85,
      "id": 345887,
      "video": false,
      "vote_average": 6.4,
      "title": "The Equalizer 2",
      "popularity": 47.727,
      "poster_path": "/cQvc9N6JiMVKqol3wcYrGshsIdZ.jpg",
      "original_language": "en",
      "original_title": "The Equalizer 2",
      "genre_ids": [
        53,
        28,
        80
      ],
      "backdrop_path": "/a24i4Qw6qFTtkFLQsncv8WPwevj.jpg",
      "adult": false,
      "overview": "Robert McCall returns to deliver his special brand of vigilante justice -- but how far will he go when it's someone he loves?",
      "release_date": "2018-07-19"
    },
    {
      "vote_count": 399,
      "id": 437557,
      "video": false,
      "vote_average": 6.1,
      "title": "Blockers",
      "popularity": 33.895,
      "poster_path": "/uvlUQXg0AlpGzKukO11K7QtW3Yu.jpg",
      "original_language": "en",
      "original_title": "Blockers",
      "genre_ids": [
        35
      ],
      "backdrop_path": "/bUcHY7CrYWieikW8fFkL3Dxnt4H.jpg",
      "adult": false,
      "overview": "When three parents discover their daughters’ pact to lose their virginity at prom, they launch a covert one-night operation to stop the teens from sealing the deal.",
      "release_date": "2018-03-14"
    },
    {
      "vote_count": 6,
      "id": 345940,
      "video": false,
      "vote_average": 0,
      "title": "The Meg",
      "popularity": 31.402,
      "poster_path": "/xqECHNvzbDL5I3iiOVUkVPJMSbc.jpg",
      "original_language": "en",
      "original_title": "The Meg",
      "genre_ids": [
        28,
        878,
        53,
        27
      ],
      "backdrop_path": "/ibKeXahq4JD63z6uWQphqoJLvNw.jpg",
      "adult": false,
      "overview": "A deep sea submersible pilot revisits his past fears in the Mariana Trench, and accidentally unleashes the seventy foot ancestor of the Great White Shark believed to be extinct.",
      "release_date": "2018-08-09"
    },
    {
      "vote_count": 1,
      "id": 507562,
      "video": false,
      "vote_average": 1,
      "title": "Crayon Shin-chan: Burst Serving! Kung Fu Boys ~Ramen Rebellion~",
      "popularity": 29.765,
      "poster_path": "/qjxtWgMzZbkViDqmbjXuuZCj1az.jpg",
      "original_language": "ja",
      "original_title": "映画クレヨンしんちゃん 爆盛！カンフーボーイズ ～拉麺大乱～",
      "genre_ids": [
        35,
        12,
        16
      ],
      "backdrop_path": null,
      "adult": false,
      "overview": "Shin-chan is all set to challenge Kung Fu in the Chinatown of Kasukabe city, known as Aiyā Town.",
      "release_date": "2018-04-13"
    },
    {
      "vote_count": 18,
      "id": 375107,
      "video": false,
      "vote_average": 6.8,
      "title": "Duck Duck Goose",
      "popularity": 29.497,
      "poster_path": "/7XURM64DYa9DpS70I2rM4suvq1s.jpg",
      "original_language": "en",
      "original_title": "Duck Duck Goose",
      "genre_ids": [
        16,
        10751,
        12,
        35
      ],
      "backdrop_path": "/xgt7soczqOnzIiP93QOiu4FLUe4.jpg",
      "adult": false,
      "overview": "After he’s grounded by an injury, a high-flying bachelor is saddled with two wide-eyed orphans as they come face-to-face with the dangers and beauty of the outside world.",
      "release_date": "2018-03-09"
    },
    {
      "vote_count": 55,
      "id": 497814,
      "video": false,
      "vote_average": 6.2,
      "title": "Breaking In",
      "popularity": 27.775,
      "poster_path": "/bKH7H4f5LPBQ5KOmHPcYtxCo7Od.jpg",
      "original_language": "en",
      "original_title": "Breaking In",
      "genre_ids": [
        53,
        80,
        28
      ],
      "backdrop_path": "/aEitmeLoFACS2hUEJSo1cDyWosn.jpg",
      "adult": false,
      "overview": "Shaun Russell takes her son and daughter on a weekend getaway to her late father's secluded, high-tech vacation home in the countryside. The family soon gets an unwelcome surprise when four men break into the house to find hidden money. After managing to escape, Shaun must now figure out a way to turn the tables on the desperate thieves and save her captive children.",
      "release_date": "2018-05-05"
    },
    {
      "vote_count": 6,
      "id": 474395,
      "video": false,
      "vote_average": 8.5,
      "title": "Teen Titans Go! To the Movies",
      "popularity": 24.257,
      "poster_path": "/mFHihhE9hlvJEk2f1AqdLRaYHd6.jpg",
      "original_language": "en",
      "original_title": "Teen Titans Go! To the Movies",
      "genre_ids": [
        10751,
        16
      ],
      "backdrop_path": "/1SjsVcGO2T2cCrhlhXi8gxQl7jx.jpg",
      "adult": false,
      "overview": "When the Teen Titans go to the big screen, they go big! Teen Titans GO! to the Movies finds our egocentric, wildly satirical superheroes in their first feature film extravaganza—a fresh, gleefully clever, kid-appropriately crass and tongue-in-cheek play on the superhero genre, complete with musical numbers.",
      "release_date": "2018-07-27"
    },
    {
      "vote_count": 155,
      "id": 455980,
      "video": false,
      "vote_average": 7.1,
      "title": "Tag",
      "popularity": 24.134,
      "poster_path": "/eXXpuW2xaq5Aen9N5prFlARVIvr.jpg",
      "original_language": "en",
      "original_title": "Tag",
      "genre_ids": [
        35
      ],
      "backdrop_path": "/yRXzrwLfB5tDTIA3lSU9S3N9RUK.jpg",
      "adult": false,
      "overview": "For one month every year, five highly competitive friends hit the ground running in a no-holds-barred game of tag they’ve been playing since the first grade. This year, the game coincides with the wedding of their only undefeated player, which should finally make him an easy target. But he knows they’re coming...and he’s ready.",
      "release_date": "2018-06-14"
    },
    {
      "vote_count": 23,
      "id": 347866,
      "video": false,
      "vote_average": 6.1,
      "title": "Hot Summer Nights",
      "popularity": 22.918,
      "poster_path": "/gsWdYsXkpJx2CYkveEw779O5eMg.jpg",
      "original_language": "en",
      "original_title": "Hot Summer Nights",
      "genre_ids": [
        18
      ],
      "backdrop_path": "/8DsxZGG7FEr9fIAIVVHZB7NhyxB.jpg",
      "adult": false,
      "overview": "A teen winds up in over his head while dealing drugs with a rebellious partner and chasing the young man's enigmatic sister during the summer of 1991 that he spends in Cape Cod, Massachusetts.",
      "release_date": "2018-07-27"
    },
    {
      "vote_count": 24,
      "id": 448776,
      "video": false,
      "vote_average": 6.9,
      "title": "A Prayer Before Dawn",
      "popularity": 21.073,
      "poster_path": "/73KrcLh1DpnBP3HwGpqoUUwKWF4.jpg",
      "original_language": "en",
      "original_title": "A Prayer Before Dawn",
      "genre_ids": [
        18,
        28,
        80
      ],
      "backdrop_path": "/tyaVwOLIpAzZFP0qmXm2VZhYkxZ.jpg",
      "adult": false,
      "overview": "Based on the true life experience of Billy Moore who survived his Thai prison ordeal by becoming a Muay Thai boxing champion.",
      "release_date": "2018-06-20"
    },
    {
      "vote_count": 139,
      "id": 417261,
      "video": false,
      "vote_average": 7.1,
      "title": "Forever My Girl",
      "popularity": 17.606,
      "poster_path": "/hcushpAgo51nTpBAuTygLxiJ80h.jpg",
      "original_language": "en",
      "original_title": "Forever My Girl",
      "genre_ids": [
        10749,
        18,
        10402
      ],
      "backdrop_path": "/tUJTaWlDbdC5kTov5zFVCWfCzGO.jpg",
      "adult": false,
      "overview": "After being gone for a decade, a country star returns home to the love he left behind.",
      "release_date": "2018-01-26"
    },
    {
      "vote_count": 65,
      "id": 433498,
      "video": false,
      "vote_average": 8.2,
      "title": "Papillon",
      "popularity": 17.579,
      "poster_path": "/ahF5c6vyP8HWMqIwlhecbRALkjq.jpg",
      "original_language": "en",
      "original_title": "Papillon",
      "genre_ids": [
        18,
        12
      ],
      "backdrop_path": "/vdWTsGEKrjClFex0oVlbnOx5vCz.jpg",
      "adult": false,
      "overview": "Henri Charriere, called \"Papillon\" for the butterfly tattoo on his chest, is convicted in Paris for a murder he did not commit. Sentenced to life imprisonment in the penal colony of French Guiana, he becomes obsessed with escaping. After planning and executing a series of treacherous yet failed attempts, he's sent to the notorious prison Devil's Island, a place from which no one has ever escaped.",
      "release_date": "2018-07-26"
    },
    {
      "vote_count": 0,
      "id": 506763,
      "video": false,
      "vote_average": 0,
      "title": "Detective Dee: The Four Heavenly Kings",
      "popularity": 17.202,
      "poster_path": "/hhJhgOsSIcN5RiRS8js4mv7K3iA.jpg",
      "original_language": "zh",
      "original_title": "狄仁杰之四大天王",
      "genre_ids": [
        9648,
        14,
        12
      ],
      "backdrop_path": null,
      "adult": false,
      "overview": "Dee, the detective serving Chinese empress Wu Zetian, is called upon to investigate a series of strange events in Loyang, including the appearance of mysterious warriors wearing Chiyou ghost masks, foxes that speak human language and the pillar sculptures in the palace coming alive.",
      "release_date": "2018-07-27"
    },
    {
      "vote_count": 95,
      "id": 430231,
      "video": false,
      "vote_average": 6.7,
      "title": "The Endless",
      "popularity": 16.715,
      "poster_path": "/49sb3kEZplzudQBhJDSt0mNJm4V.jpg",
      "original_language": "en",
      "original_title": "The Endless",
      "genre_ids": [
        878,
        27,
        53
      ],
      "backdrop_path": "/zX0pEwk0zDnS85Nxl1hI6h6dfFu.jpg",
      "adult": false,
      "overview": "Two brothers return to the cult they fled from years ago to discover that the group's beliefs may be more sane than they once thought.",
      "release_date": "2017-10-05"
    }
  ],
  "page": 1,
  "total_results": 311,
  "dates": {
    "maximum": "2018-08-24",
    "minimum": "2018-07-30"
  },
  "total_pages": 16
}